{
    "name": "Pixeye.Source",
    "references": [
        "Pixeye.Framework",
        "Unity.TextMeshPro",
        "UniRx",
        "TherdParty.Runtime",
        "TherdParty.Editor"
    ],
    "optionalUnityReferences": [],
    "includePlatforms": [],
    "excludePlatforms": [],
    "allowUnsafeCode": false,
    "overrideReferences": false,
    "precompiledReferences": [],
    "autoReferenced": true,
    "defineConstraints": []
}